nodbi - package overview
…
For updating existing documents, see below function
docdb_update().

docdb_get

All documents in a container can now be retrieved with
docdb_get().

# load library for more
# readable print output
library(tibble)

# get all documents, irrespective of schema
as_tibble(docdb_get(src, key))
#> # A tibble: 137 × 31
#>    `_id`             url   args  headers$Host origin    id destination_addresses
#>    <chr>             <chr> <df[> <chr>        <chr>  <int> <list>               
#>  1 060ef2ee-36e2-11… http…       httpbin.org  143.1…     0 <NULL>               
#>  2 060ef302-36e2-11… http…       httpbin.org  143.1…     1 <NULL>               
#>  3 060ef303-36e2-11… http…       httpbin.org  143.1…     2 <NULL>               
#>  4 060ef30c-36e2-11… http…       httpbin.org  143.1…     3 <NULL>               
#>  5 060ef30d-36e2-11… http…       httpbin.org  143.1…     4 <NULL>               
#>  6 060ef316-36e2-11… http…       httpbin.org  143.1…     5 <NULL>               
#>  7 060ef317-36e2-11… http…       httpbin.org  143.1…     6 <NULL>               
#>  8 060ef318-36e2-11… http…       httpbin.org  143.1…     7 <NULL>               
#>  9 060ef320-36e2-11… http…       httpbin.org  143.1…     8 <NULL>               
#> 10 060ef321-36e2-11… http…       httpbin.org  143.1…     9 <NULL>               
#> # ℹ 127 more rows
#> # ℹ 27 more variables: headers$`X-Amzn-Trace-Id` <chr>, $`User-Agent` <chr>,
#> #   $Accept <chr>, origin_addresses <list>, rows <list>, status <chr>,
#> #   isActive <lgl>, balance <chr>, age <int>, eyeColor <chr>, name <chr>,
#> #   email <chr>, about <chr>, registered <chr>, tags <list>, friends <list>,
#> #   mpg <dbl>, cyl <int>, disp <dbl>, hp <int>, drat <dbl>, wt <dbl>,
#> #   qsec <dbl>, vs <int>, am <int>, gear <int>, carb <int>
…
